{
  "rezervacije" : [ {
    "iznajmljivac" : {
      "type" : "iznajmljivac vozila",
      "korisnickoIme" : "David98",
      "sifra" : "98",
      "jmbg" : 3,
      "ime" : "David",
      "prezime" : "Zahorodni",
      "drzavljanstvo" : "Republika Srbija",
      "brojTelefona" : "0612838162"
    },
    "rezervisanoVozilo" : {
      "type" : "bicikl",
      "registracioniBroj" : "NS444-JK",
      "servisiranje" : [ ],
      "predjeniKm" : 20.0,
      "brKmPreServisiranja" : 50.0,
      "cenaServisiranja" : 500.0,
      "cenaIznajmljivanjaPoDanu" : 600.0,
      "brojSedista" : 1,
      "logickiObrisanoVozilo" : false
    },
    "datumPocetkaRezervacije" : "2018-05-15",
    "datumKrajaRezervacije" : "2018-05-24",
    "cenaRezervacije" : 13500.0,
    "logickiObrisanaRezervacija" : false
  }, {
    "iznajmljivac" : {
      "type" : "iznajmljivac vozila",
      "korisnickoIme" : "Mina89",
      "sifra" : "89",
      "jmbg" : 2,
      "ime" : "Mina",
      "prezime" : "Gusman",
      "drzavljanstvo" : "Republika Srbija",
      "brojTelefona" : "0641571023"
    },
    "rezervisanoVozilo" : {
      "type" : "bicikl",
      "registracioniBroj" : "NS000-SR",
      "servisiranje" : [ {
        "registracioniBrojServisiranje" : "NS000-SR",
        "datumServisiranja" : "2017-04-11",
        "brPredjenihKmUTrenutkuServisiranja" : 50.0
      }, {
        "registracioniBrojServisiranje" : "NS000-SR",
        "datumServisiranja" : "2018-04-11",
        "brPredjenihKmUTrenutkuServisiranja" : 100.0
      } ],
      "predjeniKm" : 130.5,
      "brKmPreServisiranja" : 50.0,
      "cenaServisiranja" : 500.0,
      "cenaIznajmljivanjaPoDanu" : 400.0,
      "brojSedista" : 1,
      "logickiObrisanoVozilo" : false
    },
    "datumPocetkaRezervacije" : "2018-06-15",
    "datumKrajaRezervacije" : "2018-08-24",
    "cenaRezervacije" : 12500.0,
    "logickiObrisanaRezervacija" : false
  }, {
    "iznajmljivac" : {
      "type" : "iznajmljivac vozila",
      "korisnickoIme" : "Mina89",
      "sifra" : "89",
      "jmbg" : 2,
      "ime" : "Mina",
      "prezime" : "Gusman",
      "drzavljanstvo" : "Republika Srbija",
      "brojTelefona" : "0641571023"
    },
    "rezervisanoVozilo" : {
      "type" : "bicikl",
      "registracioniBroj" : "NS000-SR",
      "servisiranje" : [ {
        "registracioniBrojServisiranje" : "NS000-SR",
        "datumServisiranja" : "2017-04-11",
        "brPredjenihKmUTrenutkuServisiranja" : 50.0
      }, {
        "registracioniBrojServisiranje" : "NS000-SR",
        "datumServisiranja" : "2018-04-11",
        "brPredjenihKmUTrenutkuServisiranja" : 100.0
      } ],
      "predjeniKm" : 130.5,
      "brKmPreServisiranja" : 50.0,
      "cenaServisiranja" : 500.0,
      "cenaIznajmljivanjaPoDanu" : 400.0,
      "brojSedista" : 1,
      "logickiObrisanoVozilo" : false
    },
    "datumPocetkaRezervacije" : "2018-09-15",
    "datumKrajaRezervacije" : "2018-09-24",
    "cenaRezervacije" : 12500.0,
    "logickiObrisanaRezervacija" : true
  }, {
    "iznajmljivac" : {
      "type" : "iznajmljivac vozila",
      "korisnickoIme" : "Mina89",
      "sifra" : "89",
      "jmbg" : 2,
      "ime" : "Mina",
      "prezime" : "Gusman",
      "drzavljanstvo" : "Republika Srbija",
      "brojTelefona" : "0641571023"
    },
    "rezervisanoVozilo" : {
      "type" : "teretno vozilo",
      "registracioniBroj" : "NS254-ED",
      "servisiranje" : [ {
        "registracioniBrojServisiranje" : "NS254-ED",
        "datumServisiranja" : "2018-02-04",
        "brPredjenihKmUTrenutkuServisiranja" : 1000.0
      } ],
      "gorivo" : {
        "nazivGoriva" : "EVRO PREMIJUM BMB 95",
        "cenaGoriva" : 170.0
      },
      "potrosnjaGoriva" : 15.0,
      "predjeniKm" : 1500.5,
      "brKmPreServisiranja" : 1000.0,
      "cenaServisiranja" : 1000.0,
      "cenaIznajmljivanjaPoDanu" : 1000.0,
      "brojSedista" : 5,
      "brojVrata" : 5,
      "logickiObrisanoVozilo" : false,
      "maksimalnaMasa" : 500.0,
      "maksimalnaVisina" : 5.75
    },
    "datumPocetkaRezervacije" : "2018-10-15",
    "datumKrajaRezervacije" : "2018-10-24",
    "cenaRezervacije" : 12500.0,
    "logickiObrisanaRezervacija" : false
  }, {
    "iznajmljivac" : {
      "type" : "iznajmljivac vozila",
      "korisnickoIme" : "Mina89",
      "sifra" : "89",
      "jmbg" : 2,
      "ime" : "Mina",
      "prezime" : "Gusman",
      "drzavljanstvo" : "Republika Srbija",
      "brojTelefona" : "0641571023"
    },
    "rezervisanoVozilo" : {
      "type" : "putnicko vozilo",
      "registracioniBroj" : "NS111-JD",
      "servisiranje" : [ {
        "registracioniBrojServisiranje" : "NS111-JD",
        "datumServisiranja" : "2017-08-01",
        "brPredjenihKmUTrenutkuServisiranja" : 800.0
      } ],
      "gorivo" : {
        "nazivGoriva" : "EVRO DIZEL",
        "cenaGoriva" : 150.0
      },
      "potrosnjaGoriva" : 8.0,
      "predjeniKm" : 1000.5,
      "brKmPreServisiranja" : 800.0,
      "cenaServisiranja" : 800.0,
      "cenaIznajmljivanjaPoDanu" : 800.0,
      "brojSedista" : 5,
      "brojVrata" : 5,
      "logickiObrisanoVozilo" : false
    },
    "datumPocetkaRezervacije" : "2018-08-15",
    "datumKrajaRezervacije" : "2018-09-24",
    "cenaRezervacije" : 15000.0,
    "logickiObrisanaRezervacija" : true
  }, {
    "iznajmljivac" : {
      "type" : "iznajmljivac vozila",
      "korisnickoIme" : "Mina89",
      "sifra" : "89",
      "jmbg" : 2,
      "ime" : "Mina",
      "prezime" : "Gusman",
      "drzavljanstvo" : "Republika Srbija",
      "brojTelefona" : "0641571023"
    },
    "rezervisanoVozilo" : {
      "type" : "teretno vozilo",
      "registracioniBroj" : "NS333-ED",
      "servisiranje" : [ ],
      "gorivo" : {
        "nazivGoriva" : "EVRO PREMIJUM BMB 95",
        "cenaGoriva" : 170.0
      },
      "potrosnjaGoriva" : 17.0,
      "predjeniKm" : 200.5,
      "brKmPreServisiranja" : 1000.0,
      "cenaServisiranja" : 1400.0,
      "cenaIznajmljivanjaPoDanu" : 1200.0,
      "brojSedista" : 5,
      "brojVrata" : 5,
      "logickiObrisanoVozilo" : false,
      "maksimalnaMasa" : 800.0,
      "maksimalnaVisina" : 6.75
    },
    "datumPocetkaRezervacije" : "2018-07-15",
    "datumKrajaRezervacije" : "2018-08-20",
    "cenaRezervacije" : 12500.0,
    "logickiObrisanaRezervacija" : false
  } ]
}